EESchema Schematic File Version 4
LIBS:template-cache
EELAYER 30 0
EELAYER END
$Descr A4 11693 8268
encoding utf-8
Sheet 1 1
Title ""
Date ""
Rev ""
Comp ""
Comment1 ""
Comment2 ""
Comment3 ""
Comment4 ""
$EndDescr
$Comp
L ESP32-Wrover:ESP32-WROVER U1
U 1 1 6109B42D
P 6300 3250
F 0 "U1" H 6275 4587 60  0000 C CNN
F 1 "ESP32-WROVER" H 6275 4481 60  0000 C CNN
F 2 "esp:ESP32-WROVER" H 6750 2950 60  0001 C CNN
F 3 "" H 6750 2950 60  0001 C CNN
	1    6300 3250
	1    0    0    -1  
$EndComp
$Comp
L power:+3.3V #PWR0101
U 1 1 610A0F37
P 5050 1300
F 0 "#PWR0101" H 5050 1150 50  0001 C CNN
F 1 "+3.3V" H 5065 1473 50  0000 C CNN
F 2 "" H 5050 1300 50  0001 C CNN
F 3 "" H 5050 1300 50  0001 C CNN
	1    5050 1300
	1    0    0    -1  
$EndComp
$Comp
L power:GND #PWR0102
U 1 1 610A12BC
P 7450 2300
F 0 "#PWR0102" H 7450 2050 50  0001 C CNN
F 1 "GND" H 7455 2127 50  0000 C CNN
F 2 "" H 7450 2300 50  0001 C CNN
F 3 "" H 7450 2300 50  0001 C CNN
	1    7450 2300
	-1   0    0    1   
$EndComp
Wire Wire Line
	7450 2300 7450 2500
Wire Wire Line
	7450 2500 7150 2500
Connection ~ 7450 2500
$Comp
L power:GND #PWR0103
U 1 1 610A373F
P 5950 1650
F 0 "#PWR0103" H 5950 1400 50  0001 C CNN
F 1 "GND" V 5955 1522 50  0000 R CNN
F 2 "" H 5950 1650 50  0001 C CNN
F 3 "" H 5950 1650 50  0001 C CNN
	1    5950 1650
	0    -1   -1   0   
$EndComp
$Comp
L power:GND #PWR0104
U 1 1 610A44B2
P 5300 2300
F 0 "#PWR0104" H 5300 2050 50  0001 C CNN
F 1 "GND" H 5305 2127 50  0000 C CNN
F 2 "" H 5300 2300 50  0001 C CNN
F 3 "" H 5300 2300 50  0001 C CNN
	1    5300 2300
	-1   0    0    1   
$EndComp
Wire Wire Line
	5400 2500 5300 2500
Wire Wire Line
	5300 2500 5300 2300
$Comp
L Device:C_Small C1
U 1 1 610A5588
P 5550 1400
F 0 "C1" V 5345 1400 39  0000 C CNN
F 1 "470uF" V 5420 1400 39  0000 C CNN
F 2 "Capacitor_THT:C_Radial_D6.3mm_H7.0mm_P2.50mm" H 5550 1400 50  0001 C CNN
F 3 "~" H 5550 1400 50  0001 C CNN
	1    5550 1400
	0    1    1    0   
$EndComp
$Comp
L Device:C_Small C2
U 1 1 610A63CD
P 5550 1750
F 0 "C2" V 5345 1750 39  0000 C CNN
F 1 "0.1uf" V 5420 1750 39  0000 C CNN
F 2 "Capacitor_THT:C_Disc_D3.8mm_W2.6mm_P2.50mm" H 5550 1750 50  0001 C CNN
F 3 "~" H 5550 1750 50  0001 C CNN
	1    5550 1750
	0    1    1    0   
$EndComp
Wire Wire Line
	5800 1650 5950 1650
Wire Wire Line
	5650 1750 5800 1750
Wire Wire Line
	5800 1750 5800 1650
Wire Wire Line
	5650 1400 5800 1400
Wire Wire Line
	5800 1400 5800 1650
Connection ~ 5800 1650
$Comp
L power:+3.3V #PWR0105
U 1 1 610A9AC6
P 4700 1300
F 0 "#PWR0105" H 4700 1150 50  0001 C CNN
F 1 "+3.3V" H 4715 1473 50  0000 C CNN
F 2 "" H 4700 1300 50  0001 C CNN
F 3 "" H 4700 1300 50  0001 C CNN
	1    4700 1300
	1    0    0    -1  
$EndComp
Wire Wire Line
	5050 1300 5050 1400
Wire Wire Line
	5050 2600 5400 2600
Wire Wire Line
	5450 1400 5050 1400
Connection ~ 5050 1400
Wire Wire Line
	5050 1400 5050 1750
Wire Wire Line
	5450 1750 5050 1750
Connection ~ 5050 1750
Wire Wire Line
	5050 1750 5050 2600
$Comp
L Device:R_Small R1
U 1 1 610AAC5C
P 4700 1550
F 0 "R1" H 4759 1596 50  0000 L CNN
F 1 "10k" H 4759 1505 50  0000 L CNN
F 2 "Resistor_THT:R_Axial_DIN0207_L6.3mm_D2.5mm_P10.16mm_Horizontal" H 4700 1550 50  0001 C CNN
F 3 "~" H 4700 1550 50  0001 C CNN
	1    4700 1550
	1    0    0    -1  
$EndComp
$Comp
L Device:C_Small C3
U 1 1 610AB37F
P 4450 1800
F 0 "C3" V 4245 1800 39  0000 C CNN
F 1 "1uf" V 4320 1800 39  0000 C CNN
F 2 "Capacitor_THT:C_Radial_D5.0mm_H7.0mm_P2.00mm" H 4450 1800 50  0001 C CNN
F 3 "~" H 4450 1800 50  0001 C CNN
	1    4450 1800
	0    1    1    0   
$EndComp
$Comp
L power:GND #PWR0106
U 1 1 610AC095
P 4300 2200
F 0 "#PWR0106" H 4300 1950 50  0001 C CNN
F 1 "GND" H 4305 2027 50  0000 C CNN
F 2 "" H 4300 2200 50  0001 C CNN
F 3 "" H 4300 2200 50  0001 C CNN
	1    4300 2200
	1    0    0    -1  
$EndComp
Wire Wire Line
	4700 1300 4700 1450
Wire Wire Line
	4700 1650 4700 1800
Wire Wire Line
	4700 2700 5400 2700
Wire Wire Line
	4300 1800 4350 1800
Wire Wire Line
	4550 1800 4700 1800
Connection ~ 4700 1800
Wire Wire Line
	7150 2900 7850 2900
Wire Wire Line
	7150 3000 7850 3000
Wire Wire Line
	7150 3900 7500 3900
$Comp
L Connector_Generic:Conn_02x05_Odd_Even J1
U 1 1 612BA686
P 5850 6550
F 0 "J1" H 5900 6967 50  0000 C CNN
F 1 "Jtag" H 5900 6876 50  0000 C CNN
F 2 "Connector_IDC:IDC-Header_2x05_P2.54mm_Vertical" H 5850 6550 50  0001 C CNN
F 3 "~" H 5850 6550 50  0001 C CNN
	1    5850 6550
	1    0    0    -1  
$EndComp
$Comp
L Connector_Generic:Conn_02x03_Odd_Even J2
U 1 1 612BC4AC
P 5850 7350
F 0 "J2" H 5900 7667 50  0000 C CNN
F 1 "Program" H 5900 7576 50  0000 C CNN
F 2 "Connector_IDC:IDC-Header_2x03_P2.54mm_Vertical" H 5850 7350 50  0001 C CNN
F 3 "~" H 5850 7350 50  0001 C CNN
	1    5850 7350
	1    0    0    -1  
$EndComp
Wire Wire Line
	5650 7250 5400 7250
Wire Wire Line
	5650 7350 5400 7350
Wire Wire Line
	5400 7450 5650 7450
Wire Wire Line
	6400 7250 6150 7250
Wire Wire Line
	6400 7350 6150 7350
Wire Wire Line
	6400 7450 6150 7450
$Comp
L power:+3.3V #PWR0108
U 1 1 612C9105
P 5400 6200
F 0 "#PWR0108" H 5400 6050 50  0001 C CNN
F 1 "+3.3V" H 5415 6373 50  0000 C CNN
F 2 "" H 5400 6200 50  0001 C CNN
F 3 "" H 5400 6200 50  0001 C CNN
	1    5400 6200
	1    0    0    -1  
$EndComp
$Comp
L power:GND #PWR0109
U 1 1 612C98DA
P 5400 6900
F 0 "#PWR0109" H 5400 6650 50  0001 C CNN
F 1 "GND" H 5405 6727 50  0000 C CNN
F 2 "" H 5400 6900 50  0001 C CNN
F 3 "" H 5400 6900 50  0001 C CNN
	1    5400 6900
	1    0    0    -1  
$EndComp
Wire Wire Line
	5650 6350 5400 6350
Wire Wire Line
	5400 6350 5400 6200
Wire Wire Line
	5650 6450 5400 6450
Wire Wire Line
	5400 6450 5400 6550
Wire Wire Line
	5650 6550 5400 6550
Connection ~ 5400 6550
Wire Wire Line
	5400 6550 5400 6650
Wire Wire Line
	5650 6650 5400 6650
Connection ~ 5400 6650
Wire Wire Line
	5400 6650 5400 6750
Wire Wire Line
	5650 6750 5400 6750
Connection ~ 5400 6750
Wire Wire Line
	5400 6750 5400 6900
$Comp
L power:+3.3V #PWR013
U 1 1 612D908E
P 6400 7250
F 0 "#PWR013" H 6400 7100 50  0001 C CNN
F 1 "+3.3V" H 6415 7423 50  0000 C CNN
F 2 "" H 6400 7250 50  0001 C CNN
F 3 "" H 6400 7250 50  0001 C CNN
	1    6400 7250
	1    0    0    -1  
$EndComp
$Comp
L power:GND #PWR014
U 1 1 612D930D
P 6400 7350
F 0 "#PWR014" H 6400 7100 50  0001 C CNN
F 1 "GND" V 6405 7222 50  0000 R CNN
F 2 "" H 6400 7350 50  0001 C CNN
F 3 "" H 6400 7350 50  0001 C CNN
	1    6400 7350
	0    -1   -1   0   
$EndComp
Text Label 6150 7450 0    50   ~ 0
PrgIO0
Text Label 5450 7250 0    50   ~ 0
RESET
Text Label 5500 7350 0    50   ~ 0
TXD
Text Label 5500 7450 0    50   ~ 0
RXD
Text Label 7250 2900 0    50   ~ 0
TXD
Text Label 7250 3000 0    50   ~ 0
RXD
Text Label 7200 3900 0    50   ~ 0
PrgIO0
Text Label 5100 2700 0    50   ~ 0
RESET
Text GLabel 6150 6350 2    50   Output ~ 0
TMS_14
Text GLabel 5400 3700 0    50   Input ~ 0
TMS_14
Text GLabel 6150 6450 2    50   Output ~ 0
TCK_13
Text GLabel 5400 4000 0    50   Input ~ 0
TCK_13
Text GLabel 6150 6650 2    50   Output ~ 0
TDI_12
NoConn ~ 6150 6750
Text GLabel 5400 3800 0    50   Input ~ 0
TDI_12
Text GLabel 6150 6550 2    50   Input ~ 0
TDO_15
Text GLabel 7150 4100 2    50   Output ~ 0
TDO_15
$Comp
L power:GND #PWR07
U 1 1 612DFD73
P 4900 4000
F 0 "#PWR07" H 4900 3750 50  0001 C CNN
F 1 "GND" H 4905 3827 50  0000 C CNN
F 2 "" H 4900 4000 50  0001 C CNN
F 3 "" H 4900 4000 50  0001 C CNN
	1    4900 4000
	1    0    0    -1  
$EndComp
Wire Wire Line
	5400 3900 4900 3900
Wire Wire Line
	4900 3900 4900 4000
Wire Notes Line
	4800 5800 6750 5800
Wire Notes Line
	6750 5800 6750 7650
Wire Notes Line
	6750 7650 4800 7650
Wire Notes Line
	4800 7650 4800 5800
Text Notes 5850 5750 2    50   Italic 0
Programacion / Depuracion
Text GLabel 10150 1450 0    50   Output ~ 0
BattLevel
$Comp
L Device:R_Small R2
U 1 1 612BC9E4
P 10250 1300
F 0 "R2" H 10309 1346 50  0000 L CNN
F 1 "200k" H 10309 1255 50  0000 L CNN
F 2 "Resistor_THT:R_Axial_DIN0207_L6.3mm_D2.5mm_P10.16mm_Horizontal" H 10250 1300 50  0001 C CNN
F 3 "~" H 10250 1300 50  0001 C CNN
	1    10250 1300
	1    0    0    -1  
$EndComp
$Comp
L Device:R_Small R3
U 1 1 612BD027
P 10250 1650
F 0 "R3" H 10309 1696 50  0000 L CNN
F 1 "200k" H 10309 1605 50  0000 L CNN
F 2 "Resistor_THT:R_Axial_DIN0207_L6.3mm_D2.5mm_P10.16mm_Horizontal" H 10250 1650 50  0001 C CNN
F 3 "~" H 10250 1650 50  0001 C CNN
	1    10250 1650
	1    0    0    -1  
$EndComp
$Comp
L power:+6V #PWR01
U 1 1 612BD863
P 10250 1150
F 0 "#PWR01" H 10250 1000 50  0001 C CNN
F 1 "+6V" H 10265 1323 50  0000 C CNN
F 2 "" H 10250 1150 50  0001 C CNN
F 3 "" H 10250 1150 50  0001 C CNN
	1    10250 1150
	1    0    0    -1  
$EndComp
$Comp
L power:GND #PWR04
U 1 1 612BE7D4
P 10250 1750
F 0 "#PWR04" H 10250 1500 50  0001 C CNN
F 1 "GND" H 10255 1577 50  0000 C CNN
F 2 "" H 10250 1750 50  0001 C CNN
F 3 "" H 10250 1750 50  0001 C CNN
	1    10250 1750
	1    0    0    -1  
$EndComp
Wire Wire Line
	10250 1400 10250 1450
Wire Wire Line
	10150 1450 10250 1450
Connection ~ 10250 1450
Wire Wire Line
	10250 1450 10250 1550
Text GLabel 5400 3300 0    50   Input ~ 0
BattLevel
Text GLabel 9950 4550 0    50   Input ~ 0
LED_ON
Text GLabel 9950 4950 0    50   Input ~ 0
LED_ACT
Text GLabel 9950 5350 0    50   Input ~ 0
LED_COIL
$Comp
L Device:R_Small R6
U 1 1 612C98D4
P 10150 4550
F 0 "R6" V 9954 4550 50  0000 C CNN
F 1 "380r" V 10045 4550 50  0000 C CNN
F 2 "Resistor_SMD:R_1206_3216Metric_Pad1.42x1.75mm_HandSolder" H 10150 4550 50  0001 C CNN
F 3 "~" H 10150 4550 50  0001 C CNN
	1    10150 4550
	0    1    1    0   
$EndComp
$Comp
L Device:R_Small R7
U 1 1 612C9CD7
P 10150 4950
F 0 "R7" V 9954 4950 50  0000 C CNN
F 1 "380r" V 10045 4950 50  0000 C CNN
F 2 "Resistor_SMD:R_1206_3216Metric_Pad1.42x1.75mm_HandSolder" H 10150 4950 50  0001 C CNN
F 3 "~" H 10150 4950 50  0001 C CNN
	1    10150 4950
	0    1    1    0   
$EndComp
$Comp
L Device:R_Small R9
U 1 1 612CA168
P 10150 5350
F 0 "R9" V 9954 5350 50  0000 C CNN
F 1 "380r" V 10045 5350 50  0000 C CNN
F 2 "Resistor_SMD:R_1206_3216Metric_Pad1.42x1.75mm_HandSolder" H 10150 5350 50  0001 C CNN
F 3 "~" H 10150 5350 50  0001 C CNN
	1    10150 5350
	0    1    1    0   
$EndComp
$Comp
L Device:LED D1
U 1 1 612CCFAE
P 10400 4550
F 0 "D1" H 10393 4295 50  0000 C CNN
F 1 "Green" H 10393 4386 50  0000 C CNN
F 2 "LED_THT:LED_D3.0mm" H 10400 4550 50  0001 C CNN
F 3 "~" H 10400 4550 50  0001 C CNN
	1    10400 4550
	-1   0    0    1   
$EndComp
$Comp
L Device:LED D3
U 1 1 612CDBDA
P 10400 4950
F 0 "D3" H 10393 4695 50  0000 C CNN
F 1 "Red" H 10393 4786 50  0000 C CNN
F 2 "LED_THT:LED_D3.0mm" H 10400 4950 50  0001 C CNN
F 3 "~" H 10400 4950 50  0001 C CNN
	1    10400 4950
	-1   0    0    1   
$EndComp
$Comp
L Device:LED D4
U 1 1 612CEC9A
P 10400 5350
F 0 "D4" H 10393 5095 50  0000 C CNN
F 1 "Blue" H 10393 5186 50  0000 C CNN
F 2 "LED_THT:LED_D3.0mm" H 10400 5350 50  0001 C CNN
F 3 "~" H 10400 5350 50  0001 C CNN
	1    10400 5350
	-1   0    0    1   
$EndComp
$Comp
L power:GND #PWR09
U 1 1 612CF800
P 10750 5450
F 0 "#PWR09" H 10750 5200 50  0001 C CNN
F 1 "GND" H 10755 5277 50  0000 C CNN
F 2 "" H 10750 5450 50  0001 C CNN
F 3 "" H 10750 5450 50  0001 C CNN
	1    10750 5450
	1    0    0    -1  
$EndComp
Wire Wire Line
	9950 4550 10050 4550
Wire Wire Line
	10550 4550 10750 4550
Wire Wire Line
	10750 4550 10750 4950
Wire Wire Line
	9950 4950 10050 4950
Wire Wire Line
	10550 4950 10750 4950
Connection ~ 10750 4950
Wire Wire Line
	10750 4950 10750 5350
Wire Wire Line
	10550 5350 10750 5350
Connection ~ 10750 5350
Wire Wire Line
	10750 5350 10750 5450
Wire Wire Line
	9950 5350 10050 5350
Text GLabel 7150 3300 2    50   Output ~ 0
LED_ON
Text GLabel 7150 3400 2    50   Output ~ 0
LED_ACT
Text GLabel 7150 3500 2    50   Output ~ 0
LED_COIL
$Comp
L power:+3.3V #PWR06
U 1 1 612EBAAF
P 10650 2750
F 0 "#PWR06" H 10650 2600 50  0001 C CNN
F 1 "+3.3V" H 10665 2923 50  0000 C CNN
F 2 "" H 10650 2750 50  0001 C CNN
F 3 "" H 10650 2750 50  0001 C CNN
	1    10650 2750
	1    0    0    -1  
$EndComp
$Comp
L Device:R_Small R4
U 1 1 612EF5C4
P 10650 3000
F 0 "R4" H 10591 2954 50  0000 R CNN
F 1 "1k" H 10591 3045 50  0000 R CNN
F 2 "Resistor_SMD:R_1206_3216Metric_Pad1.42x1.75mm_HandSolder" H 10650 3000 50  0001 C CNN
F 3 "~" H 10650 3000 50  0001 C CNN
	1    10650 3000
	-1   0    0    1   
$EndComp
Text GLabel 9900 3300 0    50   Output ~ 0
BUTTON
Text GLabel 5400 3000 0    50   Input ~ 0
BUTTON
Text GLabel 1500 6550 0    50   Output ~ 0
RingDet
Text GLabel 1350 5300 0    50   Input ~ 0
Lock
$Comp
L Device:R_Small R8
U 1 1 6130E307
P 1650 5300
F 0 "R8" V 1454 5300 50  0000 C CNN
F 1 "1k" V 1545 5300 50  0000 C CNN
F 2 "Resistor_SMD:R_1206_3216Metric_Pad1.42x1.75mm_HandSolder" H 1650 5300 50  0001 C CNN
F 3 "~" H 1650 5300 50  0001 C CNN
	1    1650 5300
	0    1    1    0   
$EndComp
$Comp
L Transistor_BJT:BC337 Q1
U 1 1 6130F3F1
P 2100 5300
F 0 "Q1" H 2291 5346 50  0000 L CNN
F 1 "npn_r" H 2291 5255 50  0000 L CNN
F 2 "Package_TO_SOT_THT:TO-92_HandSolder" H 2300 5225 50  0001 L CIN
F 3 "https://diotec.com/tl_files/diotec/files/pdf/datasheets/bc337.pdf" H 2100 5300 50  0001 L CNN
	1    2100 5300
	1    0    0    -1  
$EndComp
$Comp
L Relay:DIPxx-1Cxx-51x K1
U 1 1 613128B4
P 2400 4650
F 0 "K1" H 2830 4696 50  0000 L CNN
F 1 "SDR-03VDC-SL-C" H 2830 4605 50  0000 L CNN
F 2 "SRD-05VDC-SL-C:RELAY_SRD-03VDC-SL-C__" H 2850 4600 50  0001 L CNN
F 3 "https://standexelectronics.com/wp-content/uploads/datasheet_reed_relay_DIP.pdf" H 2400 4650 50  0001 C CNN
	1    2400 4650
	1    0    0    -1  
$EndComp
$Comp
L Device:D_Small D2
U 1 1 61319E0E
P 1550 4650
F 0 "D2" V 1504 4718 50  0000 L CNN
F 1 "D" V 1595 4718 50  0000 L CNN
F 2 "Diode_THT:D_A-405_P10.16mm_Horizontal" V 1550 4650 50  0001 C CNN
F 3 "~" V 1550 4650 50  0001 C CNN
	1    1550 4650
	0    1    1    0   
$EndComp
$Comp
L power:+6V #PWR08
U 1 1 6131D413
P 2200 4200
F 0 "#PWR08" H 2200 4050 50  0001 C CNN
F 1 "+6V" H 2215 4373 50  0000 C CNN
F 2 "" H 2200 4200 50  0001 C CNN
F 3 "" H 2200 4200 50  0001 C CNN
	1    2200 4200
	1    0    0    -1  
$EndComp
Wire Wire Line
	1350 5300 1550 5300
Wire Wire Line
	1750 5300 1900 5300
Wire Wire Line
	2200 4950 2200 5000
Wire Wire Line
	2200 4350 2200 4300
Wire Wire Line
	2200 4300 1550 4300
Wire Wire Line
	1550 4300 1550 4550
Wire Wire Line
	1550 4750 1550 5000
Wire Wire Line
	1550 5000 2200 5000
Connection ~ 2200 5000
Wire Wire Line
	2200 5000 2200 5100
$Comp
L Connector:Screw_Terminal_01x03 J5
U 1 1 6132CCAF
P 3900 5500
F 0 "J5" H 3818 5175 50  0000 C CNN
F 1 "Fornex" H 3818 5266 50  0000 C CNN
F 2 "TerminalBlock_RND:TerminalBlock_RND_205-00013_1x03_P5.00mm_Horizontal" H 3900 5500 50  0001 C CNN
F 3 "~" H 3900 5500 50  0001 C CNN
	1    3900 5500
	1    0    0    1   
$EndComp
Wire Wire Line
	2700 4350 2700 4300
Wire Wire Line
	2700 4300 3700 4300
Wire Wire Line
	3700 4300 3700 5400
Wire Wire Line
	2600 4950 2600 5100
Wire Wire Line
	2600 5100 3600 5100
Wire Wire Line
	3600 5500 3700 5500
Wire Wire Line
	2200 4300 2200 4200
Connection ~ 2200 4300
$Comp
L Device:R_Small R11
U 1 1 6135C084
P 1750 6550
F 0 "R11" V 1554 6550 50  0000 C CNN
F 1 "1k" V 1645 6550 50  0000 C CNN
F 2 "Resistor_SMD:R_1206_3216Metric_Pad1.42x1.75mm_HandSolder" H 1750 6550 50  0001 C CNN
F 3 "~" H 1750 6550 50  0001 C CNN
	1    1750 6550
	0    1    1    0   
$EndComp
$Comp
L Isolator:PC817 U3
U 1 1 6135C76E
P 2350 6450
F 0 "U3" H 2350 6775 50  0000 C CNN
F 1 "PC817" H 2350 6684 50  0000 C CNN
F 2 "Package_DIP:DIP-4_W7.62mm" H 2150 6250 50  0001 L CIN
F 3 "http://www.soselectronic.cz/a_info/resource/d/pc817.pdf" H 2350 6450 50  0001 L CNN
	1    2350 6450
	-1   0    0    -1  
$EndComp
$Comp
L power:GND #PWR010
U 1 1 6135DAC0
P 2200 5550
F 0 "#PWR010" H 2200 5300 50  0001 C CNN
F 1 "GND" H 2205 5377 50  0000 C CNN
F 2 "" H 2200 5550 50  0001 C CNN
F 3 "" H 2200 5550 50  0001 C CNN
	1    2200 5550
	1    0    0    -1  
$EndComp
Wire Wire Line
	2200 5500 2200 5550
$Comp
L power:+3.3V #PWR011
U 1 1 61360CB1
P 2050 6150
F 0 "#PWR011" H 2050 6000 50  0001 C CNN
F 1 "+3.3V" H 2065 6323 50  0000 C CNN
F 2 "" H 2050 6150 50  0001 C CNN
F 3 "" H 2050 6150 50  0001 C CNN
	1    2050 6150
	1    0    0    -1  
$EndComp
$Comp
L power:GND #PWR012
U 1 1 61366F93
P 1950 6950
F 0 "#PWR012" H 1950 6700 50  0001 C CNN
F 1 "GND" H 1955 6777 50  0000 C CNN
F 2 "" H 1950 6950 50  0001 C CNN
F 3 "" H 1950 6950 50  0001 C CNN
	1    1950 6950
	1    0    0    -1  
$EndComp
Wire Wire Line
	1500 6550 1650 6550
Wire Wire Line
	1850 6550 1950 6550
Wire Wire Line
	1950 6550 1950 6650
Wire Wire Line
	2050 6150 2050 6350
Wire Wire Line
	2050 6550 1950 6550
Connection ~ 1950 6550
$Comp
L Device:D_Small D5
U 1 1 6137D5DA
P 2850 6450
F 0 "D5" V 2804 6518 50  0000 L CNN
F 1 "D" V 2895 6518 50  0000 L CNN
F 2 "Diode_THT:D_A-405_P10.16mm_Horizontal" V 2850 6450 50  0001 C CNN
F 3 "~" V 2850 6450 50  0001 C CNN
	1    2850 6450
	0    1    1    0   
$EndComp
$Comp
L Device:R_Small R10
U 1 1 6137E70B
P 3300 6350
F 0 "R10" V 3104 6350 50  0000 C CNN
F 1 "680r" V 3195 6350 50  0000 C CNN
F 2 "Resistor_SMD:R_1206_3216Metric_Pad1.42x1.75mm_HandSolder" H 3300 6350 50  0001 C CNN
F 3 "~" H 3300 6350 50  0001 C CNN
	1    3300 6350
	0    1    1    0   
$EndComp
Wire Wire Line
	3600 6550 2850 6550
Connection ~ 3600 5500
Wire Wire Line
	2850 6550 2650 6550
Connection ~ 2850 6550
Wire Wire Line
	2650 6350 2850 6350
Wire Wire Line
	3200 6350 2850 6350
Connection ~ 2850 6350
Wire Wire Line
	3400 6350 3700 6350
Wire Wire Line
	3700 6350 3700 5600
Wire Wire Line
	3600 5500 3600 6550
Wire Wire Line
	3600 5100 3600 5500
$Comp
L Device:R_Small R5
U 1 1 613991C6
P 1950 6750
F 0 "R5" H 1891 6704 50  0000 R CNN
F 1 "380r" H 1891 6795 50  0000 R CNN
F 2 "Resistor_SMD:R_1206_3216Metric_Pad1.42x1.75mm_HandSolder" H 1950 6750 50  0001 C CNN
F 3 "~" H 1950 6750 50  0001 C CNN
	1    1950 6750
	-1   0    0    1   
$EndComp
Wire Wire Line
	1950 6850 1950 6950
Text GLabel 7150 3600 2    50   Output ~ 0
Lock
Text GLabel 5400 3100 0    50   Input ~ 0
RingDet
$Comp
L Connector:Screw_Terminal_01x02 J4
U 1 1 61435F13
P 1200 2050
F 0 "J4" H 1118 1725 50  0000 C CNN
F 1 "Pila" H 1118 1816 50  0000 C CNN
F 2 "TerminalBlock_RND:TerminalBlock_RND_205-00012_1x02_P5.00mm_Horizontal" H 1200 2050 50  0001 C CNN
F 3 "~" H 1200 2050 50  0001 C CNN
	1    1200 2050
	-1   0    0    1   
$EndComp
$Comp
L power:GND #PWR05
U 1 1 6143775B
P 2950 2500
F 0 "#PWR05" H 2950 2250 50  0001 C CNN
F 1 "GND" H 2955 2327 50  0000 C CNN
F 2 "" H 2950 2500 50  0001 C CNN
F 3 "" H 2950 2500 50  0001 C CNN
	1    2950 2500
	1    0    0    -1  
$EndComp
$Comp
L power:+6V #PWR02
U 1 1 61437C95
P 2400 1600
F 0 "#PWR02" H 2400 1450 50  0001 C CNN
F 1 "+6V" H 2415 1773 50  0000 C CNN
F 2 "" H 2400 1600 50  0001 C CNN
F 3 "" H 2400 1600 50  0001 C CNN
	1    2400 1600
	1    0    0    -1  
$EndComp
$Comp
L ld:HT7333 U2
U 1 1 61447798
P 2950 1950
F 0 "U2" H 2950 2192 50  0000 C CNN
F 1 "HT7333" H 2950 2101 50  0000 C CNN
F 2 "Package_TO_SOT_SMD:SOT-223-3_TabPin2" H 2950 2150 50  0001 C CNN
F 3 "http://www.diodes.com/datasheets/AP1117.pdf" H 3050 1700 50  0001 C CNN
	1    2950 1950
	1    0    0    -1  
$EndComp
$Comp
L Device:CP1_Small C4
U 1 1 6144FB40
P 2400 2200
F 0 "C4" H 2491 2246 50  0000 L CNN
F 1 "150uf" H 2491 2155 50  0000 L CNN
F 2 "Capacitor_THT:C_Radial_D6.3mm_H7.0mm_P2.50mm" H 2400 2200 50  0001 C CNN
F 3 "~" H 2400 2200 50  0001 C CNN
	1    2400 2200
	1    0    0    -1  
$EndComp
$Comp
L power:+3.3V #PWR03
U 1 1 61451A11
P 3400 1600
F 0 "#PWR03" H 3400 1450 50  0001 C CNN
F 1 "+3.3V" H 3415 1773 50  0000 C CNN
F 2 "" H 3400 1600 50  0001 C CNN
F 3 "" H 3400 1600 50  0001 C CNN
	1    3400 1600
	1    0    0    -1  
$EndComp
Wire Wire Line
	1400 1950 1700 1950
Wire Wire Line
	2400 1950 2400 1600
Wire Wire Line
	1400 2050 1400 2400
Wire Wire Line
	1400 2400 1700 2400
Wire Wire Line
	2400 1950 2400 2100
Connection ~ 2400 1950
Wire Wire Line
	2400 2300 2400 2400
Connection ~ 2400 2400
Wire Wire Line
	2400 2400 2950 2400
Wire Wire Line
	3250 1950 3400 1950
Wire Wire Line
	3400 1950 3400 1600
Wire Notes Line
	11100 5800 9200 5800
Wire Notes Line
	9200 5800 9200 4050
Wire Notes Line
	9200 4050 11100 4050
Wire Notes Line
	11100 4050 11100 5800
Wire Notes Line
	9200 3750 11100 3750
Wire Notes Line
	11100 3750 11100 2400
Wire Notes Line
	11100 2400 9200 2400
Wire Notes Line
	9200 2400 9200 3750
Wire Notes Line
	11100 2100 9200 2100
Wire Notes Line
	9200 2100 9200 850 
Wire Notes Line
	9200 850  11100 850 
Wire Notes Line
	11100 850  11100 2100
Wire Notes Line
	4500 3800 4500 7650
Wire Notes Line
	4500 7650 700  7650
Wire Notes Line
	700  7650 700  3800
Wire Notes Line
	700  3800 4500 3800
Wire Notes Line
	700  3250 3800 3250
Wire Notes Line
	3800 3250 3800 850 
Wire Notes Line
	3800 850  700  850 
Wire Notes Line
	700  850  700  3250
Text Notes 700  3750 0    50   ~ 0
Conexión al fermax
Text Notes 700  800  0    50   ~ 0
Power
Text Notes 9200 800  0    50   ~ 0
Medidor de la bateria
Text Notes 9200 2350 0    50   ~ 0
Botón de control de HomeKit
Text Notes 9200 4000 0    50   ~ 0
Leds
Text Notes 3950 5550 0    50   ~ 0
3
Text Notes 3950 5650 0    50   ~ 0
4
Text Notes 3950 5400 0    50   ~ 0
1
Text Notes 1250 1950 0    50   ~ 0
+
Text Notes 1250 2050 0    50   ~ 0
-
Wire Wire Line
	9900 3300 10650 3300
Wire Wire Line
	10650 3300 10650 3100
Wire Wire Line
	10650 2900 10650 2750
Text Notes 9250 3700 0    50   ~ 0
El botón tiene un bug en la libreria.\nUn pullup para asegurar que no\nse activa
Text Notes 7050 6750 0    50   ~ 0
Telefonillo\nesquema para esp32 wrover
$Comp
L Mechanical:MountingHole H3
U 1 1 612EF228
P 9450 6300
F 0 "H3" H 9550 6346 50  0000 L CNN
F 1 "MountingHole" H 9550 6255 50  0000 L CNN
F 2 "MountingHole:MountingHole_2.2mm_M2" H 9450 6300 50  0001 C CNN
F 3 "~" H 9450 6300 50  0001 C CNN
	1    9450 6300
	1    0    0    -1  
$EndComp
$Comp
L Mechanical:MountingHole H4
U 1 1 612F01DC
P 10300 6300
F 0 "H4" H 10400 6346 50  0000 L CNN
F 1 "MountingHole" H 10400 6255 50  0000 L CNN
F 2 "MountingHole:MountingHole_2.2mm_M2" H 10300 6300 50  0001 C CNN
F 3 "~" H 10300 6300 50  0001 C CNN
	1    10300 6300
	1    0    0    -1  
$EndComp
$Comp
L Mechanical:MountingHole H1
U 1 1 612F0894
P 9450 6050
F 0 "H1" H 9550 6096 50  0000 L CNN
F 1 "MountingHole" H 9550 6005 50  0000 L CNN
F 2 "MountingHole:MountingHole_2.2mm_M2" H 9450 6050 50  0001 C CNN
F 3 "~" H 9450 6050 50  0001 C CNN
	1    9450 6050
	1    0    0    -1  
$EndComp
$Comp
L Mechanical:MountingHole H2
U 1 1 612F1134
P 10300 6050
F 0 "H2" H 10400 6096 50  0000 L CNN
F 1 "MountingHole" H 10400 6005 50  0000 L CNN
F 2 "MountingHole:MountingHole_2.2mm_M2" H 10300 6050 50  0001 C CNN
F 3 "~" H 10300 6050 50  0001 C CNN
	1    10300 6050
	1    0    0    -1  
$EndComp
NoConn ~ 7150 2700
NoConn ~ 7150 2800
NoConn ~ 7150 3100
NoConn ~ 7150 3800
NoConn ~ 7150 4000
NoConn ~ 7150 4200
NoConn ~ 7150 4300
NoConn ~ 7150 4400
NoConn ~ 5400 2800
NoConn ~ 5400 2900
NoConn ~ 5400 3200
NoConn ~ 5400 3400
NoConn ~ 5400 3500
NoConn ~ 5400 3600
NoConn ~ 5400 4100
NoConn ~ 5400 4200
NoConn ~ 5400 4300
Wire Wire Line
	10250 1150 10250 1200
Wire Wire Line
	7450 2500 7450 2600
Wire Wire Line
	7150 2600 7450 2600
NoConn ~ 2500 4350
$Comp
L power:PWR_FLAG #FLG0101
U 1 1 61359D7E
P 1700 1950
F 0 "#FLG0101" H 1700 2025 50  0001 C CNN
F 1 "PWR_FLAG" H 1700 2123 50  0000 C CNN
F 2 "" H 1700 1950 50  0001 C CNN
F 3 "~" H 1700 1950 50  0001 C CNN
	1    1700 1950
	1    0    0    -1  
$EndComp
$Comp
L power:PWR_FLAG #FLG0102
U 1 1 6135A633
P 1700 2400
F 0 "#FLG0102" H 1700 2475 50  0001 C CNN
F 1 "PWR_FLAG" H 1700 2573 50  0000 C CNN
F 2 "" H 1700 2400 50  0001 C CNN
F 3 "~" H 1700 2400 50  0001 C CNN
	1    1700 2400
	-1   0    0    1   
$EndComp
Connection ~ 1700 2400
Wire Wire Line
	1700 2400 2400 2400
NoConn ~ 7150 3700
Wire Wire Line
	2950 2250 2950 2400
Connection ~ 2950 2400
Wire Wire Line
	2950 2400 2950 2500
Wire Wire Line
	2400 1950 2650 1950
Connection ~ 1700 1950
Wire Wire Line
	1700 1950 2400 1950
Wire Wire Line
	4300 1800 4300 2200
Wire Wire Line
	4700 1800 4700 2700
Text Notes 3500 6100 2    50   ~ 0
para telefonillos \ndigitales esta \nresistencia es 0r
Text Notes 3050 2300 0    50   ~ 0
el empaquetado\nsmd da bruntouts
Text Notes 7450 3750 0    50   ~ 0
pines 04,16 y 17 puenteados\n16 y 17 desconectados en grover
$EndSCHEMATC
