EESchema Schematic File Version 4
LIBS:amp_circuit-cache
EELAYER 30 0
EELAYER END
$Descr A4 11693 8268
encoding utf-8
Sheet 1 1
Title ""
Date ""
Rev ""
Comp ""
Comment1 ""
Comment2 ""
Comment3 ""
Comment4 ""
$EndDescr
$Comp
L MCU_Microchip_ATtiny:ATtiny85-20PU U2
U 1 1 61A80F89
P 4100 3050
F 0 "U2" H 3571 3096 50  0000 R CNN
F 1 "ATtiny85-20PU" H 3571 3005 50  0000 R CNN
F 2 "Package_DIP:DIP-8_W7.62mm" H 4100 3050 50  0001 C CIN
F 3 "http://ww1.microchip.com/downloads/en/DeviceDoc/atmel-2586-avr-8-bit-microcontroller-attiny25-attiny45-attiny85_datasheet.pdf" H 4100 3050 50  0001 C CNN
	1    4100 3050
	1    0    0    -1  
$EndComp
$Comp
L Regulator_Linear:L7805 U1
U 1 1 61A81766
P 3150 1750
F 0 "U1" H 3150 1992 50  0000 C CNN
F 1 "L7805" H 3150 1901 50  0000 C CNN
F 2 "Package_TO_SOT_THT:TO-220-3_Horizontal_TabDown" H 3175 1600 50  0001 L CIN
F 3 "http://www.st.com/content/ccc/resource/technical/document/datasheet/41/4f/b3/b0/12/d4/47/88/CD00000444.pdf/files/CD00000444.pdf/jcr:content/translations/en.CD00000444.pdf" H 3150 1700 50  0001 C CNN
	1    3150 1750
	1    0    0    -1  
$EndComp
$Comp
L Connector:Screw_Terminal_01x03 J1
U 1 1 61A82C4E
P 5900 1450
F 0 "J1" H 5980 1492 50  0000 L CNN
F 1 "Screw_Terminal_01x03" H 5980 1401 50  0000 L CNN
F 2 "TerminalBlock:TerminalBlock_Altech_AK300-3_P5.00mm" H 5900 1450 50  0001 C CNN
F 3 "~" H 5900 1450 50  0001 C CNN
	1    5900 1450
	1    0    0    -1  
$EndComp
$Comp
L Connector:Screw_Terminal_01x03 J2
U 1 1 61A83285
P 5900 2000
F 0 "J2" H 5980 2042 50  0000 L CNN
F 1 "Screw_Terminal_01x03" H 5980 1951 50  0000 L CNN
F 2 "TerminalBlock:TerminalBlock_Altech_AK300-3_P5.00mm" H 5900 2000 50  0001 C CNN
F 3 "~" H 5900 2000 50  0001 C CNN
	1    5900 2000
	1    0    0    -1  
$EndComp
$Comp
L Device:R R1
U 1 1 61A83CEA
P 5150 3400
F 0 "R1" V 5357 3400 50  0000 C CNN
F 1 "220" V 5266 3400 50  0000 C CNN
F 2 "Resistor_THT:R_Axial_DIN0204_L3.6mm_D1.6mm_P7.62mm_Horizontal" V 5080 3400 50  0001 C CNN
F 3 "~" H 5150 3400 50  0001 C CNN
	1    5150 3400
	0    -1   -1   0   
$EndComp
$Comp
L power:+8V #PWR0101
U 1 1 61A84241
P 2550 1600
F 0 "#PWR0101" H 2550 1450 50  0001 C CNN
F 1 "+8V" H 2565 1773 50  0000 C CNN
F 2 "" H 2550 1600 50  0001 C CNN
F 3 "" H 2550 1600 50  0001 C CNN
	1    2550 1600
	1    0    0    -1  
$EndComp
$Comp
L power:+5V #PWR0102
U 1 1 61A846F7
P 3750 1600
F 0 "#PWR0102" H 3750 1450 50  0001 C CNN
F 1 "+5V" H 3765 1773 50  0000 C CNN
F 2 "" H 3750 1600 50  0001 C CNN
F 3 "" H 3750 1600 50  0001 C CNN
	1    3750 1600
	1    0    0    -1  
$EndComp
$Comp
L power:GND #PWR0103
U 1 1 61A851D2
P 3150 2200
F 0 "#PWR0103" H 3150 1950 50  0001 C CNN
F 1 "GND" H 3155 2027 50  0000 C CNN
F 2 "" H 3150 2200 50  0001 C CNN
F 3 "" H 3150 2200 50  0001 C CNN
	1    3150 2200
	1    0    0    -1  
$EndComp
Wire Wire Line
	2550 1600 2550 1750
Wire Wire Line
	2550 1750 2850 1750
Wire Wire Line
	3450 1750 3750 1750
Wire Wire Line
	3750 1750 3750 1600
Wire Wire Line
	3150 2050 3150 2200
$Comp
L power:GND #PWR0104
U 1 1 61A871DC
P 4100 3950
F 0 "#PWR0104" H 4100 3700 50  0001 C CNN
F 1 "GND" H 4105 3777 50  0000 C CNN
F 2 "" H 4100 3950 50  0001 C CNN
F 3 "" H 4100 3950 50  0001 C CNN
	1    4100 3950
	1    0    0    -1  
$EndComp
$Comp
L power:+5V #PWR0105
U 1 1 61A882F1
P 4100 2150
F 0 "#PWR0105" H 4100 2000 50  0001 C CNN
F 1 "+5V" H 4115 2323 50  0000 C CNN
F 2 "" H 4100 2150 50  0001 C CNN
F 3 "" H 4100 2150 50  0001 C CNN
	1    4100 2150
	1    0    0    -1  
$EndComp
Wire Wire Line
	4100 2150 4100 2450
Wire Wire Line
	4100 3650 4100 3950
Text GLabel 5550 3150 2    50   Output ~ 0
output
Text GLabel 5550 3050 2    50   Input ~ 0
input
Wire Wire Line
	5550 3050 4700 3050
Wire Wire Line
	5550 3150 5300 3150
Wire Wire Line
	5300 3150 5300 3400
Wire Wire Line
	4700 3150 5000 3150
Wire Wire Line
	5000 3150 5000 3400
$Comp
L power:+8V #PWR0106
U 1 1 61A8A63B
P 5350 1550
F 0 "#PWR0106" H 5350 1400 50  0001 C CNN
F 1 "+8V" V 5365 1678 50  0000 L CNN
F 2 "" H 5350 1550 50  0001 C CNN
F 3 "" H 5350 1550 50  0001 C CNN
	1    5350 1550
	0    -1   -1   0   
$EndComp
$Comp
L power:GND #PWR0107
U 1 1 61A8CBE9
P 5350 1450
F 0 "#PWR0107" H 5350 1200 50  0001 C CNN
F 1 "GND" V 5355 1322 50  0000 R CNN
F 2 "" H 5350 1450 50  0001 C CNN
F 3 "" H 5350 1450 50  0001 C CNN
	1    5350 1450
	0    1    1    0   
$EndComp
Text GLabel 5350 1350 0    50   Input ~ 0
input
Wire Wire Line
	5700 1350 5350 1350
Wire Wire Line
	5700 1450 5350 1450
Wire Wire Line
	5700 1550 5350 1550
$Comp
L power:+8V #PWR0108
U 1 1 61A8E477
P 5350 1900
F 0 "#PWR0108" H 5350 1750 50  0001 C CNN
F 1 "+8V" V 5365 2028 50  0000 L CNN
F 2 "" H 5350 1900 50  0001 C CNN
F 3 "" H 5350 1900 50  0001 C CNN
	1    5350 1900
	0    -1   -1   0   
$EndComp
$Comp
L power:GND #PWR0109
U 1 1 61A8E47D
P 5350 2000
F 0 "#PWR0109" H 5350 1750 50  0001 C CNN
F 1 "GND" V 5355 1872 50  0000 R CNN
F 2 "" H 5350 2000 50  0001 C CNN
F 3 "" H 5350 2000 50  0001 C CNN
	1    5350 2000
	0    1    1    0   
$EndComp
Text GLabel 5350 2100 0    50   Output ~ 0
output
Wire Wire Line
	5700 1900 5350 1900
Wire Wire Line
	5700 2000 5350 2000
Wire Wire Line
	5700 2100 5350 2100
$EndSCHEMATC
