(module ESP32-WROVER (layer F.Cu) (tedit 5B6C7719)
  (attr smd)
  (fp_text reference U1 (at -0.1 0.62) (layer F.SilkS)
    (effects (font (size 1 1) (thickness 0.15)))
  )
  (fp_text value ESP32-WROVER (at 0.1 2.92) (layer F.Fab) hide
    (effects (font (size 1 1) (thickness 0.15)))
  )
  (fp_line (start 9 24.95) (end -9 24.95) (layer F.SilkS) (width 0.05))
  (fp_line (start 9 -0.58) (end 9 24.95) (layer F.SilkS) (width 0.05))
  (fp_line (start -9 -0.58) (end 9 -0.58) (layer F.SilkS) (width 0.05))
  (fp_line (start -9 24.95) (end -9 -0.58) (layer F.SilkS) (width 0.05))
  (fp_line (start -9.017 -0.635) (end -9.017 -6.604) (layer F.SilkS) (width 0.15))
  (fp_line (start 9.017 -0.635) (end 9.017 -6.604) (layer F.SilkS) (width 0.15))
  (fp_line (start 9.017 -6.604) (end -9.017 -6.604) (layer F.SilkS) (width 0.15))
  (pad 39 thru_hole circle (at -2.4 5.82) (size 0.8 0.8) (drill 0.3) (layers *.Cu *.Mask))
  (pad 39 smd rect (at -0.4 7.83) (size 5 5) (layers F.Cu F.Paste F.Mask))
  (pad 1 smd oval (at -9 0.91) (size 3 0.9) (layers F.Cu F.Paste F.Mask))
  (pad 2 smd oval (at -9 2.18) (size 3 0.9) (layers F.Cu F.Paste F.Mask))
  (pad 3 smd oval (at -9 3.45) (size 3 0.9) (layers F.Cu F.Paste F.Mask))
  (pad 4 smd oval (at -9 4.72) (size 3 0.9) (layers F.Cu F.Paste F.Mask))
  (pad 5 smd oval (at -9 5.99) (size 3 0.9) (layers F.Cu F.Paste F.Mask))
  (pad 6 smd oval (at -9 7.26) (size 3 0.9) (layers F.Cu F.Paste F.Mask))
  (pad 7 smd oval (at -9 8.53) (size 3 0.9) (layers F.Cu F.Paste F.Mask))
  (pad 8 smd oval (at -9 9.8) (size 3 0.9) (layers F.Cu F.Paste F.Mask))
  (pad 9 smd oval (at -9 11.07) (size 3 0.9) (layers F.Cu F.Paste F.Mask))
  (pad 10 smd oval (at -9 12.34) (size 3 0.9) (layers F.Cu F.Paste F.Mask))
  (pad 11 smd oval (at -9 13.61) (size 3 0.9) (layers F.Cu F.Paste F.Mask))
  (pad 12 smd oval (at -9 14.88) (size 3 0.9) (layers F.Cu F.Paste F.Mask))
  (pad 13 smd oval (at -9 16.15) (size 3 0.9) (layers F.Cu F.Paste F.Mask))
  (pad 14 smd oval (at -9 17.42) (size 3 0.9) (layers F.Cu F.Paste F.Mask))
  (pad 15 smd oval (at -9 18.72) (size 3 0.9) (layers F.Cu F.Paste F.Mask))
  (pad 16 smd oval (at -9 19.99) (size 3 0.9) (layers F.Cu F.Paste F.Mask))
  (pad 17 smd oval (at -9 21.26) (size 3 0.9) (layers F.Cu F.Paste F.Mask))
  (pad 18 smd oval (at -9 22.53) (size 3 0.9) (layers F.Cu F.Paste F.Mask))
  (pad 19 smd oval (at -9 23.8) (size 3 0.9) (layers F.Cu F.Paste F.Mask))
  (pad 20 smd oval (at 9 23.8) (size 3 0.9) (layers F.Cu F.Paste F.Mask))
  (pad 21 smd oval (at 9 22.53) (size 3 0.9) (layers F.Cu F.Paste F.Mask))
  (pad 22 smd oval (at 9 21.26) (size 3 0.9) (layers F.Cu F.Paste F.Mask))
  (pad 23 smd oval (at 9 19.99) (size 3 0.9) (layers F.Cu F.Paste F.Mask))
  (pad 24 smd oval (at 9 18.72) (size 3 0.9) (layers F.Cu F.Paste F.Mask))
  (pad 25 smd oval (at 9.03 17.42) (size 3 0.9) (layers F.Cu F.Paste F.Mask))
  (pad 26 smd oval (at 9.03 16.15) (size 3 0.9) (layers F.Cu F.Paste F.Mask))
  (pad 27 smd oval (at 9.03 14.88) (size 3 0.9) (layers F.Cu F.Paste F.Mask))
  (pad 28 smd oval (at 9.03 13.61) (size 3 0.9) (layers F.Cu F.Paste F.Mask))
  (pad 29 smd oval (at 9.03 12.34) (size 3 0.9) (layers F.Cu F.Paste F.Mask))
  (pad 30 smd oval (at 9.03 11.07) (size 3 0.9) (layers F.Cu F.Paste F.Mask))
  (pad 31 smd oval (at 9.03 9.8) (size 3 0.9) (layers F.Cu F.Paste F.Mask))
  (pad 32 smd oval (at 9.03 8.53) (size 3 0.9) (layers F.Cu F.Paste F.Mask))
  (pad 33 smd oval (at 9.03 7.26) (size 3 0.9) (layers F.Cu F.Paste F.Mask))
  (pad 34 smd oval (at 9.03 5.99) (size 3 0.9) (layers F.Cu F.Paste F.Mask))
  (pad 35 smd oval (at 9.03 4.72) (size 3 0.9) (layers F.Cu F.Paste F.Mask))
  (pad 36 smd oval (at 9.03 3.45) (size 3 0.9) (layers F.Cu F.Paste F.Mask))
  (pad 37 smd oval (at 9.03 2.18) (size 3 0.9) (layers F.Cu F.Paste F.Mask))
  (pad 38 smd oval (at 9.03 0.91) (size 3 0.9) (layers F.Cu F.Paste F.Mask))
  (pad 39 thru_hole circle (at -2.4 6.82) (size 0.8 0.8) (drill 0.3) (layers *.Cu *.Mask))
  (pad 39 thru_hole circle (at -2.4 7.82) (size 0.8 0.8) (drill 0.3) (layers *.Cu *.Mask))
  (pad 39 thru_hole circle (at -2.4 8.82) (size 0.8 0.8) (drill 0.3) (layers *.Cu *.Mask))
  (pad 39 thru_hole circle (at -2.4 9.82) (size 0.8 0.8) (drill 0.3) (layers *.Cu *.Mask))
  (pad 39 thru_hole circle (at -1.4 9.82) (size 0.8 0.8) (drill 0.3) (layers *.Cu *.Mask))
  (pad 39 thru_hole circle (at -1.4 8.82) (size 0.8 0.8) (drill 0.3) (layers *.Cu *.Mask))
  (pad 39 thru_hole circle (at -1.4 7.82) (size 0.8 0.8) (drill 0.3) (layers *.Cu *.Mask))
  (pad 39 thru_hole circle (at -1.4 6.82) (size 0.8 0.8) (drill 0.3) (layers *.Cu *.Mask))
  (pad 39 thru_hole circle (at -1.4 5.82) (size 0.8 0.8) (drill 0.3) (layers *.Cu *.Mask))
  (pad 39 thru_hole circle (at 0.6 5.82) (size 0.8 0.8) (drill 0.3) (layers *.Cu *.Mask))
  (pad 39 thru_hole circle (at 0.6 6.82) (size 0.8 0.8) (drill 0.3) (layers *.Cu *.Mask))
  (pad 39 thru_hole circle (at 0.6 7.82) (size 0.8 0.8) (drill 0.3) (layers *.Cu *.Mask))
  (pad 39 thru_hole circle (at 0.6 8.82) (size 0.8 0.8) (drill 0.3) (layers *.Cu *.Mask))
  (pad 39 thru_hole circle (at 0.6 9.82) (size 0.8 0.8) (drill 0.3) (layers *.Cu *.Mask))
  (pad 39 thru_hole circle (at -0.4 9.82) (size 0.8 0.8) (drill 0.3) (layers *.Cu *.Mask))
  (pad 39 thru_hole circle (at -0.4 8.82) (size 0.8 0.8) (drill 0.3) (layers *.Cu *.Mask))
  (pad 39 thru_hole circle (at -0.4 7.82) (size 0.8 0.8) (drill 0.3) (layers *.Cu *.Mask))
  (pad 39 thru_hole circle (at -0.4 6.82) (size 0.8 0.8) (drill 0.3) (layers *.Cu *.Mask))
  (pad 39 thru_hole circle (at -0.4 5.82) (size 0.8 0.8) (drill 0.3) (layers *.Cu *.Mask))
  (pad 39 thru_hole circle (at 1.6 9.82) (size 0.8 0.8) (drill 0.3) (layers *.Cu *.Mask))
  (pad 39 thru_hole circle (at 1.6 8.82) (size 0.8 0.8) (drill 0.3) (layers *.Cu *.Mask))
  (pad 39 thru_hole circle (at 1.6 7.82) (size 0.8 0.8) (drill 0.3) (layers *.Cu *.Mask))
  (pad 39 thru_hole circle (at 1.6 6.82) (size 0.8 0.8) (drill 0.3) (layers *.Cu *.Mask))
  (pad 39 thru_hole circle (at 1.6 5.82) (size 0.8 0.8) (drill 0.3) (layers *.Cu *.Mask))
  (model ${KIWALTER3DMOD}/nrf51822-04_module.x3d
    (offset (xyz 11.00000323479652 29.99999034944534 0))
    (scale (xyz 2 2.8 1))
    (rotate (xyz 0 0 0))
  )
)
